{
    "dimensions": [
        {
            "width": "1057",
            "height": "912"
        }
    ],
    "instructions": 131072,
    "title": "C:/Users/Nathan/Documents/GitHub/Paothekisser/images/grayscale-gradient.jpeg"
}
